{
  "project_info": {
    "project_number": "529157417437",
    "firebase_url": "https://maze-198517.firebaseio.com",
    "project_id": "maze-198517",
    "storage_bucket": "maze-198517.appspot.com"
  },
  "client": [
    {
      "client_info": {
        "mobilesdk_app_id": "1:529157417437:android:c57670a44a77f6dd",
        "android_client_info": {
          "package_name": "com.teamsoft.maze"
        }
      },
      "oauth_client": [
        {
          "client_id": "529157417437-slp5jubv74d0elp178dildgp2rbv1afs.apps.googleusercontent.com",
          "client_type": 3
        }
      ],
      "api_key": [
        {
          "current_key": "AIzaSyD-_nR2_9mkZZh2jn0q7Shrc65DSl7HEms"
        }
      ],
      "services": {
        "analytics_service": {
          "status": 1
        },
        "appinvite_service": {
          "status": 1,
          "other_platform_oauth_client": []
        },
        "ads_service": {
          "status": 2
        }
      }
    }
  ],
  "configuration_version": "1"
}