%YAML 1.1
%TAG !u! tag:unity3d.com,2011:
--- !u!74 &7400000
AnimationClip:
  m_ObjectHideFlags: 0
  m_PrefabParentObject: {fileID: 0}
  m_PrefabInternal: {fileID: 0}
  m_Name: EnemySeeZombieIdleRight
  serializedVersion: 6
  m_Legacy: 0
  m_Compressed: 0
  m_UseHighQualityCurve: 1
  m_RotationCurves: []
  m_CompressedRotationCurves: []
  m_EulerCurves: []
  m_PositionCurves: []
  m_ScaleCurves: []
  m_FloatCurves: []
  m_PPtrCurves:
  - curve:
    - time: 0
      value: {fileID: 21300000, guid: 393909f0af54544829086ce37c64a26a, type: 3}
    - time: 0.25
      value: {fileID: 21300000, guid: 39acb111c39a94559bc94f3be787a878, type: 3}
    - time: 0.5
      value: {fileID: 21300000, guid: 99e3f7d7a07c4407396f9ee3f8d07843, type: 3}
    - time: 0.75
      value: {fileID: 21300000, guid: 0a805204d1bae40a7a06a69f212fddfa, type: 3}
    attribute: nextSprite
    path: 
    classID: 114
    script: {fileID: 11500000, guid: e96b31ce75e592f45a1cff563a4869db, type: 3}
  m_SampleRate: 4
  m_WrapMode: 0
  m_Bounds:
    m_Center: {x: 0, y: 0, z: 0}
    m_Extent: {x: 0, y: 0, z: 0}
  m_ClipBindingConstant:
    genericBindings:
    - serializedVersion: 2
      path: 0
      attribute: 3736194376
      script: {fileID: 11500000, guid: e96b31ce75e592f45a1cff563a4869db, type: 3}
      typeID: 114
      customType: 0
      isPPtrCurve: 1
    pptrCurveMapping:
    - {fileID: 21300000, guid: 393909f0af54544829086ce37c64a26a, type: 3}
    - {fileID: 21300000, guid: 39acb111c39a94559bc94f3be787a878, type: 3}
    - {fileID: 21300000, guid: 99e3f7d7a07c4407396f9ee3f8d07843, type: 3}
    - {fileID: 21300000, guid: 0a805204d1bae40a7a06a69f212fddfa, type: 3}
  m_AnimationClipSettings:
    serializedVersion: 2
    m_AdditiveReferencePoseClip: {fileID: 0}
    m_AdditiveReferencePoseTime: 0
    m_StartTime: 0
    m_StopTime: 1
    m_OrientationOffsetY: 0
    m_Level: 0
    m_CycleOffset: 0
    m_HasAdditiveReferencePose: 0
    m_LoopTime: 1
    m_LoopBlend: 0
    m_LoopBlendOrientation: 0
    m_LoopBlendPositionY: 0
    m_LoopBlendPositionXZ: 0
    m_KeepOriginalOrientation: 0
    m_KeepOriginalPositionY: 1
    m_KeepOriginalPositionXZ: 0
    m_HeightFromFeet: 0
    m_Mirror: 0
  m_EditorCurves: []
  m_EulerEditorCurves: []
  m_HasGenericRootTransform: 0
  m_HasMotionFloatCurves: 0
  m_GenerateMotionCurves: 0
  m_Events: []
