%YAML 1.1
%TAG !u! tag:unity3d.com,2011:
--- !u!74 &7400000
AnimationClip:
  m_ObjectHideFlags: 0
  m_PrefabParentObject: {fileID: 0}
  m_PrefabInternal: {fileID: 0}
  m_Name: EnemySeeZombieRightAttack
  serializedVersion: 6
  m_Legacy: 0
  m_Compressed: 0
  m_UseHighQualityCurve: 1
  m_RotationCurves: []
  m_CompressedRotationCurves: []
  m_EulerCurves: []
  m_PositionCurves: []
  m_ScaleCurves: []
  m_FloatCurves: []
  m_PPtrCurves:
  - curve:
    - time: 0
      value: {fileID: 21300000, guid: bc687867289a44debb5859e3ae2c8348, type: 3}
    - time: 0.25
      value: {fileID: 21300000, guid: 3f0d9185c604c4b25971bd0a9183e38f, type: 3}
    - time: 0.5
      value: {fileID: 21300000, guid: 425e741cf404c48b4920066fbb2b33bb, type: 3}
    - time: 0.75
      value: {fileID: 21300000, guid: 11e407b91bb724ea99e9f36a2be57706, type: 3}
    attribute: nextSprite
    path: 
    classID: 114
    script: {fileID: 11500000, guid: e96b31ce75e592f45a1cff563a4869db, type: 3}
  m_SampleRate: 4
  m_WrapMode: 0
  m_Bounds:
    m_Center: {x: 0, y: 0, z: 0}
    m_Extent: {x: 0, y: 0, z: 0}
  m_ClipBindingConstant:
    genericBindings:
    - serializedVersion: 2
      path: 0
      attribute: 3736194376
      script: {fileID: 11500000, guid: e96b31ce75e592f45a1cff563a4869db, type: 3}
      typeID: 114
      customType: 0
      isPPtrCurve: 1
    pptrCurveMapping:
    - {fileID: 21300000, guid: bc687867289a44debb5859e3ae2c8348, type: 3}
    - {fileID: 21300000, guid: 3f0d9185c604c4b25971bd0a9183e38f, type: 3}
    - {fileID: 21300000, guid: 425e741cf404c48b4920066fbb2b33bb, type: 3}
    - {fileID: 21300000, guid: 11e407b91bb724ea99e9f36a2be57706, type: 3}
  m_AnimationClipSettings:
    serializedVersion: 2
    m_AdditiveReferencePoseClip: {fileID: 0}
    m_AdditiveReferencePoseTime: 0
    m_StartTime: 0
    m_StopTime: 1
    m_OrientationOffsetY: 0
    m_Level: 0
    m_CycleOffset: 0
    m_HasAdditiveReferencePose: 0
    m_LoopTime: 1
    m_LoopBlend: 0
    m_LoopBlendOrientation: 0
    m_LoopBlendPositionY: 0
    m_LoopBlendPositionXZ: 0
    m_KeepOriginalOrientation: 0
    m_KeepOriginalPositionY: 1
    m_KeepOriginalPositionXZ: 0
    m_HeightFromFeet: 0
    m_Mirror: 0
  m_EditorCurves: []
  m_EulerEditorCurves: []
  m_HasGenericRootTransform: 0
  m_HasMotionFloatCurves: 0
  m_GenerateMotionCurves: 0
  m_Events: []
